^C:\SOLUTIONS\CUDA\OPENSIFT_CUDA\X64\DEBUG\GSS.CU.OBJ|C:\SOLUTIONS\CUDA\OPENSIFT_CUDA\X64\DEBUG\IMGFEATURES.OBJ|C:\SOLUTIONS\CUDA\OPENSIFT_CUDA\X64\DEBUG\MAIN.OBJ|C:\SOLUTIONS\CUDA\OPENSIFT_CUDA\X64\DEBUG\RESAMPLING.CU.OBJ|C:\SOLUTIONS\CUDA\OPENSIFT_CUDA\X64\DEBUG\SIFT.OBJ|C:\SOLUTIONS\CUDA\OPENSIFT_CUDA\X64\DEBUG\UTILS.OBJ
C:\SOLUTIONS\CUDA\OPENSIFT_CUDA\X64\DEBUG\OPENSIFT_CUDA.ILK
C:\SOLUTIONS\CUDA\OPENSIFT_CUDA\X64\DEBUG\OPENSIFT_CUDA.EXE
C:\SOLUTIONS\CUDA\OPENSIFT_CUDA\X64\DEBUG\OPENSIFT_CUDA.PDB
