C:\SOLUTIONS\CUDA\OPENSIFT_CUDA\X64\DEBUG\IMGFEATURES.OBJ
C:\SOLUTIONS\CUDA\OPENSIFT_CUDA\X64\DEBUG\VC110.PDB
C:\SOLUTIONS\CUDA\OPENSIFT_CUDA\X64\DEBUG\MAIN.OBJ
C:\SOLUTIONS\CUDA\OPENSIFT_CUDA\X64\DEBUG\OPENSIFT_CUDA.ILK
C:\SOLUTIONS\CUDA\OPENSIFT_CUDA\X64\DEBUG\OPENSIFT_CUDA.EXE
C:\SOLUTIONS\CUDA\OPENSIFT_CUDA\X64\DEBUG\OPENSIFT_CUDA.PDB
C:\Solutions\Cuda\opensift_cuda\x64\Debug\gss.cu.cache
C:\Solutions\Cuda\opensift_cuda\x64\Debug\resampling.cu.cache
C:\Solutions\Cuda\opensift_cuda\x64\Debug\gss.cu.obj
C:\Solutions\Cuda\opensift_cuda\x64\Debug\resampling.cu.obj
C:\Solutions\Cuda\opensift_cuda\x64\Debug\opensift_cuda.ilk
C:\Solutions\Cuda\opensift_cuda\x64\Debug\cl.command.1.tlog
C:\Solutions\Cuda\opensift_cuda\x64\Debug\CL.read.1.tlog
C:\Solutions\Cuda\opensift_cuda\x64\Debug\CL.write.1.tlog
C:\Solutions\Cuda\opensift_cuda\x64\Debug\link-cvtres.read.1.tlog
C:\Solutions\Cuda\opensift_cuda\x64\Debug\link-cvtres.write.1.tlog
C:\Solutions\Cuda\opensift_cuda\x64\Debug\link-rc.read.1.tlog
C:\Solutions\Cuda\opensift_cuda\x64\Debug\link-rc.write.1.tlog
C:\Solutions\Cuda\opensift_cuda\x64\Debug\link.3248-cvtres.read.1.tlog
C:\Solutions\Cuda\opensift_cuda\x64\Debug\link.3248-cvtres.write.1.tlog
C:\Solutions\Cuda\opensift_cuda\x64\Debug\link.3248-rc.read.1.tlog
C:\Solutions\Cuda\opensift_cuda\x64\Debug\link.3248-rc.write.1.tlog
C:\Solutions\Cuda\opensift_cuda\x64\Debug\link.3248.read.1.tlog
C:\Solutions\Cuda\opensift_cuda\x64\Debug\link.3248.write.1.tlog
C:\Solutions\Cuda\opensift_cuda\x64\Debug\link.command.1.tlog
C:\Solutions\Cuda\opensift_cuda\x64\Debug\link.read.1.tlog
C:\Solutions\Cuda\opensift_cuda\x64\Debug\link.write.1.tlog
C:\Solutions\Cuda\opensift_cuda\x64\Debug\vc110.idb
C:\Solutions\Cuda\opensift_cuda\x64\Debug\opensift_cuda.pdb
C:\Solutions\Cuda\opensift_cuda\x64\Debug\vc110.pdb
C:\Solutions\Cuda\opensift_cuda\x64\Debug\opensift_cuda.exe
